2018/06/22 * transfer
    ; timestamp: 1529668710
    raadyx:Assets   -6.77 GULD
    raadyx:Expenses   6.77 GULD
    statiamarieshillingford:Assets   6.77 GULD
    statiamarieshillingford:Income   -6.77 GULD

