2016/06/01 * guld pre-founding contributions
    kumavis:Assets                              100 GULD
    kumavis:Income:guld                        -100 GULD
    guld:Liabilities                         -100 GULD
    guld:Equity:kumavis                          100 GULD
