2016/06/01 * guld pre-founding contributions
    rheh:Assets                              100 GULD
    rheh:Income:guld                        -100 GULD
    guld:Liabilities                         -100 GULD
    guld:Equity:rheh                          100 GULD
