2016/06/01 * guld pre-founding contributions
    juandopazo:Assets                              100 GULD
    juandopazo:Income:guld                        -100 GULD
    guld:Liabilities                         -100 GULD
    guld:Equity:juandopazo                          100 GULD
