2016/06/01 * guld pre-founding contributions
    dwatling:Assets                              100 GULD
    dwatling:Income:guld                        -100 GULD
    guld:Liabilities                         -100 GULD
    guld:Equity:dwatling                          100 GULD
