2016/06/01 * guld pre-founding contributions
    geoffreybooth:Assets                              100 GULD
    geoffreybooth:Income:guld                        -100 GULD
    guld:Liabilities                         -100 GULD
    guld:Equity:geoffreybooth                          100 GULD
