2016/06/01 * guld pre-founding contributions
    ingorichter:Assets                              100 GULD
    ingorichter:Income:guld                        -100 GULD
    guld:Liabilities                         -100 GULD
    guld:Equity:ingorichter                          100 GULD
