2016/06/01 * guld pre-founding contributions
    ryan-allen:Assets                              100 GULD
    ryan-allen:Income:guld                        -100 GULD
    guld:Liabilities                         -100 GULD
    guld:Equity:ryan-allen                          100 GULD
