2016/06/01 * guld pre-founding contributions
    akre54:Assets                              100 GULD
    akre54:Income:guld                        -100 GULD
    guld:Liabilities                         -100 GULD
    guld:Equity:akre54                          100 GULD
